{
    "_cId": "6975d3c3849b974bcdc886f027e0c79b",
    "mobileEnabled": "true",
    "empty": "false",
    "formType": "START_FORM",
    "links": [
        {
            "href": "https://lawe.appianci.net/suite/rest/a/model/latest/0/form",
            "rel": "update",
            "title": "Update",
            "type": "application/vnd.appian.tv.ui+json; c=2; t=START_FORM",
            "method": "POST"
        },
        {
            "href": "https://lawe.appianci.net/suite/rest/a/model/latest/0/form",
            "rel": "self",
            "title": "Update",
            "type": "application/vnd.appian.tv.ui+json; c=2; t=START_FORM",
            "method": "GET"
        },
        {
            "href": "https://lawe.appianci.net/suite/rest/a/model/latest/0/form",
            "rel": "self",
            "title": "Update",
            "type": "application/vnd.appian.tv.ui+json; c=2; t=START_FORM",
            "method": "POST"
        },
        {
            "href": "https://lawe.appianci.net/suite/api/tempo/file",
            "rel": "upload",
            "method": "POST"
        },
        {
            "href": "https://lawe.appianci.net/suite/tempo/file-web/",
            "rel": "upload-web",
            "method": "POST"
        }
    ],
    "actions": [
        {
            "_cId": "8333cdbab40a98c14806ddac91e84583",
            "_actionName": "sail:record-action-trigger",
            "label": "",
            "saveInto": [
                "<<jA0EAwMC5DTf6th4i24B0n0B4M3huROi+WLv5qqvLbrR0T/i7OPOlPTuwaV3VfG5q/YrjjZa2r9N\r\nGcZrpKkjD1HBbkTp8Ina9VJbISP1Iwq6BWyA4My06YevcRWpWN/f58TFTrjiFSuFIQN1e/bI9dDt\r\nwPJdgJX7fTdg+DyCmkvpxxqFMCfHqbxYUFW3Kg==\r\n>>"
            ],
            "tooltip": "",
            "href": "",
            "#t": "DynamicLink"
        },
        {
            "_cId": "4713416ca9ec5e98a7be1d09b03bc84f",
            "_actionName": "sail:update-form-factor",
            "label": "",
            "saveInto": [
                "<<jA0EAwMC5DTf6th4i24B0n0B4M3huROi+WLv5qqvLbrR0T/i7OPOlPTuqqJnVfG5q/Zauxc4q8nt\r\nXjD4DvpwAqNvENZ4F+Su03ozHClWKjlnNOPWDnSA2hYvmQ30vvr4tx4sueAD5cALqMWBfx6yiEvR\r\nBY/myUMdqH/yngYZ2u/Mrg+ksKmDm7iS2//uxw==\r\n>>"
            ],
            "tooltip": "",
            "href": "",
            "#t": "DynamicLink"
        },
        {
            "_cId": "44a7926bb6f6110edd4075eab3f01b36",
            "_actionName": "sail:toggle-sites-xray",
            "label": "",
            "saveInto": [
                "<<jA0EAwMC5DTf6th4i24B0n0B4M3huROi+WLv5qqvLbrR0T/i7OPOlPTuwaV3VfG5q/YrjjZa2r9N\r\nFi8rGrJ7xmFcDBaih8cRahW6YwXWuI88IB8PiqLfNSU231qko03WXXVdKZ6x0ckqN1npzEiRX481\r\nlTpHRyRwyLsW6Zm4tr94KTtcvRpqK20Z3VSyVg==\r\n>>"
            ],
            "tooltip": "",
            "href": "",
            "#t": "DynamicLink"
        }
    ],
    "triggers": [],
    "ui": {
        "_cId": "e65a733cab2d19ce055cd8c279ec740f",
        "_isAppianInjected": "true",
        "_dirty": "false",
        "contents": [
            {
                "_cId": "b6c86713417941b8cff0d5365cbe2826",
                "focusFieldId": "0a540fdce24f02ad6c14345798e2e903",
                "label": "Form",
                "instructions": "",
                "buttons": {
                    "_cId": "54aa314fdabd329166aaef048c84f5b4",
                    "primaryButtons": [
                        {
                            "_cId": "d8902b05450d189d198f04a13d690657",
                            "isFlat": "false",
                            "action": "SUBMIT",
                            "validate": "true",
                            "label": "Submit",
                            "style": "",
                            "confirmHeader": "",
                            "confirmMessage": "",
                            "confirmButtonLabel": "",
                            "confirmButtonStyle": "PRIMARY",
                            "cancelButtonLabel": "",
                            "value": {
                                "#v": "",
                                "#t": "string"
                            },
                            "saveInto": [
                                "<<jA0EAwMC5DTf6th4i24B0o0B4M3huROi+WLv5qqvLbrR0T/i7OPOlPTuq65pVfG5r+aBaoxj+duk\r\nn/dNKgkTPAvLKYA8io37aQNlvPg42o177u/RgumJmUalyeYIetb4MkyrRkA+WNpgO+Wn1IZFEiqM\r\noR3SyFDAXl/UFmSsnqn3G4ze63t97KOAKKrTfOzQoSNLuyzOlmi1vg8G88k=\r\n>>"
                            ],
                            "size": "",
                            "icon": "",
                            "buttonStyle": "PRIMARY",
                            "ariaLabel": "",
                            "skinName": "",
                            "tooltipStyle": "",
                            "tooltipVerticalPosition": "",
                            "tooltipWidth": "",
                            "accessibilityText": "",
                            "shape": "",
                            "width": ""
                        }
                    ],
                    "secondaryButtons": [
                        {
                            "_cId": "228b36b551ad82cd886723bf3d6ddf5e",
                            "isFlat": "false",
                            "action": "SUBMIT",
                            "validate": "false",
                            "label": "Cancel",
                            "style": "",
                            "confirmHeader": "",
                            "confirmMessage": "",
                            "confirmButtonLabel": "",
                            "confirmButtonStyle": "PRIMARY",
                            "cancelButtonLabel": "",
                            "value": {
                                "#v": "",
                                "#t": "string"
                            },
                            "saveInto": [
                                "<<jA0EAwMC5DTf6th4i24B0pEB4M3huROi+WLv5qqvLbrR0T/i7OPOlPTt0zxp+w/rNgYvRXQSBCJ2\r\nzv5Yl8Cuzb1pNKlFKQcyZ4pHRXF5P/0+VAUSL4rqhtJneF2M+9lI0gpv6pYpSA/lOMUK4I44hKhy\r\nGq1HQkQFZ44JySpUYISWXmxWytkS9rPEMChdba9IcEAGqNWtjUdcGi7SNjAIySq6\r\n>>"
                            ],
                            "size": "",
                            "icon": "",
                            "buttonStyle": "NORMAL",
                            "ariaLabel": "",
                            "skinName": "",
                            "tooltipStyle": "",
                            "tooltipVerticalPosition": "",
                            "tooltipWidth": "",
                            "accessibilityText": "",
                            "shape": "",
                            "width": ""
                        }
                    ],
                    "marginBelow": "",
                    "align": "",
                    "accessibilityText": ""
                },
                "validations": [],
                "contents": [
                    {
                        "_cId": "55a9d46e9fcac826678a477e5386da24",
                        "columns": [
                            {
                                "_cId": "114d0ce151626ead9b20829eee7bbc37",
                                "contents": [
                                    {
                                        "isCollapsible": "false",
                                        "isInitiallyCollapsed": "false",
                                        "_cId": "a64eaddc976169f19c069d488f482c5e",
                                        "collapseLabel": "Hide section contents",
                                        "contents": [
                                            {
                                                "_cId": "72af93d4641fa4da84227a5f973f02b1",
                                                "columns": [
                                                    {
                                                        "_cId": "71a44a358342e7e668855e93b882dfb3",
                                                        "contents": [
                                                            {
                                                                "_cId": "304a25ef4f7f0d4e9765d27f56737994",
                                                                "columns": [
                                                                    {
                                                                        "_cId": "e231c6d85f9aa8f6ffa7ce1793002871",
                                                                        "contents": [
                                                                            {
                                                                                "_cId": "578267e01099a1988c34852dadd5c3c9",
                                                                                "columns": [
                                                                                    {
                                                                                        "_cId": "013c009d70b68976cc3c538b7ec3b11f",
                                                                                        "contents": [
                                                                                            {
                                                                                                "_cId": "f997f2ab59cdd4ce70ddcac4d5a62e6f",
                                                                                                "contents": {
                                                                                                    "_cId": "0a540fdce24f02ad6c14345798e2e903",
                                                                                                    "testLabel": "upload-File Upload 1",
                                                                                                    "label": "File Upload 1",
                                                                                                    "name": "",
                                                                                                    "extension": "",
                                                                                                    "size": "",
                                                                                                    "documentName": "",
                                                                                                    "documentDescription": "",
                                                                                                    "target": {
                                                                                                        "#t": "CollaborationDocumentOrFolder",
                                                                                                        "value": {
                                                                                                            "id": 1205,
                                                                                                            "#t": "CollaborationFolder"
                                                                                                        }
                                                                                                    },
                                                                                                    "saveInto": [
                                                                                                        "<<jA0EAwMC5DTf6th4i24B0p0B4M3huROi+WLv5qqvLbrR0T/i7OPOlPTop0NTnvzoee/oU9F/zstn\r\nfd3h5up1zCrAu5DZdEhLxY248kOtvuXrPGSqX0ZF2HdtyPL2DEZbTwd+QHNTsmkxo0eS5aNyy04L\r\n0Wk0LYY6hdlKT8hTbUaBrbyztfk+61j8jNG5qA4iPtSYR9eVHBx2g/5iVrtIPGPra+LSEBQVNMH9\r\nGSHB\r\n>>"
                                                                                                    ],
                                                                                                    "uploadLabel": "Upload",
                                                                                                    "clearFileLabel": "Clear file",
                                                                                                    "virusScanningText": "",
                                                                                                    "validateExtension": true,
                                                                                                    "#t": "FileUploadWidget"
                                                                                                },
                                                                                                "label": "File Upload 1",
                                                                                                "labelPosition": "ABOVE",
                                                                                                "instructions": "",
                                                                                                "instructionsPosition": "",
                                                                                                "helpTooltip": "",
                                                                                                "requiredStyle": "",
                                                                                                "skinName": "",
                                                                                                "marginBelow": "",
                                                                                                "accessibilityText": "",
                                                                                                "#t": "FieldLayout"
                                                                                            },
                                                                                            {
                                                                                                "_cId": "f07f014c02415e99c22923daaf6529b2",
                                                                                                "contents": {
                                                                                                    "_cId": "a99497d552a7deb526a33805fad29cf6",
                                                                                                    "testLabel": "upload-File Upload 2",
                                                                                                    "label": "File Upload 2",
                                                                                                    "name": "",
                                                                                                    "extension": "",
                                                                                                    "size": "",
                                                                                                    "documentName": "",
                                                                                                    "documentDescription": "",
                                                                                                    "target": {
                                                                                                        "#t": "CollaborationDocumentOrFolder",
                                                                                                        "value": {
                                                                                                            "id": 1205,
                                                                                                            "#t": "CollaborationFolder"
                                                                                                        }
                                                                                                    },
                                                                                                    "saveInto": [
                                                                                                        "<<jA0EAwMC5DTf6th4i24B0p0B4M3huROi+WLv5qqvLbrR0T/i7OPOlPTp8YuqMp4ru4sJ+IbLh64M\r\nGVUkNrOzPctvBjGiyLo+r2xL5gqVyC3ftgus8qHdhJS+mLCyvGnVHYNA8CqxDJzatN0Xwg5RXcS4\r\nBEVtHzJIHTNxJPeZhejvMnjdngc0tyRRMyiRE6XZJEEutD5/jRkd6EkHgIdLr+8nO8F/pDkn4fkf\r\nzGmi\r\n>>"
                                                                                                    ],
                                                                                                    "uploadLabel": "Upload",
                                                                                                    "clearFileLabel": "Clear file",
                                                                                                    "virusScanningText": "",
                                                                                                    "validateExtension": true,
                                                                                                    "#t": "FileUploadWidget"
                                                                                                },
                                                                                                "label": "File Upload 2",
                                                                                                "labelPosition": "ABOVE",
                                                                                                "instructions": "",
                                                                                                "instructionsPosition": "",
                                                                                                "helpTooltip": "",
                                                                                                "requiredStyle": "",
                                                                                                "skinName": "",
                                                                                                "marginBelow": "",
                                                                                                "accessibilityText": "",
                                                                                                "#t": "FieldLayout"
                                                                                            },
                                                                                            {
                                                                                                "_cId": "d756de938272db749dd17eb6af272c9d",
                                                                                                "contents": {
                                                                                                    "_cId": "c7788bac18637c2f433e9444602386a8",
                                                                                                    "testLabel": "upload-File Upload 3",
                                                                                                    "label": "File Upload 3",
                                                                                                    "name": "",
                                                                                                    "extension": "",
                                                                                                    "size": "",
                                                                                                    "documentName": "",
                                                                                                    "documentDescription": "",
                                                                                                    "target": {
                                                                                                        "#t": "CollaborationDocumentOrFolder",
                                                                                                        "value": {
                                                                                                            "id": 1205,
                                                                                                            "#t": "CollaborationFolder"
                                                                                                        }
                                                                                                    },
                                                                                                    "saveInto": [
                                                                                                        "<<jA0EAwMC5DTf6th4i24B0p0B4M3huROi+WLv5qqvLbrR0T/i7OPOlPTp8YukMeUru4uqaSA40QN/\r\n+NIWvqCPLqHbB9AW9LDskowF80ZDipYqfg2KMxYNte1yuPmh4nj3FJT7beZfd2DvYc24005l0HUt\r\nuqmz4ICqCUakZYSx4oOFFCsm46a9paF/hDokKKEbodJQIjh/+EKRdRnlGW4qxeZ5BzDcnKGuDSmV\r\nY6ND\r\n>>"
                                                                                                    ],
                                                                                                    "uploadLabel": "Upload",
                                                                                                    "clearFileLabel": "Clear file",
                                                                                                    "virusScanningText": "",
                                                                                                    "validateExtension": true,
                                                                                                    "#t": "FileUploadWidget"
                                                                                                },
                                                                                                "label": "File Upload 3",
                                                                                                "labelPosition": "ABOVE",
                                                                                                "instructions": "",
                                                                                                "instructionsPosition": "",
                                                                                                "helpTooltip": "",
                                                                                                "requiredStyle": "",
                                                                                                "skinName": "",
                                                                                                "marginBelow": "",
                                                                                                "accessibilityText": "",
                                                                                                "#t": "FieldLayout"
                                                                                            },
                                                                                            {
                                                                                                "_cId": "9195e8621bd03d07a5a53965163eeb0f",
                                                                                                "contents": {
                                                                                                    "_cId": "c20cf870dfae21828fbb9b6449b540ad",
                                                                                                    "testLabel": "upload-File Upload 4",
                                                                                                    "label": "File Upload 4",
                                                                                                    "name": "",
                                                                                                    "extension": "",
                                                                                                    "size": "",
                                                                                                    "documentName": "",
                                                                                                    "documentDescription": "",
                                                                                                    "target": {
                                                                                                        "#t": "CollaborationDocumentOrFolder",
                                                                                                        "value": {
                                                                                                            "id": 1205,
                                                                                                            "#t": "CollaborationFolder"
                                                                                                        }
                                                                                                    },
                                                                                                    "saveInto": [
                                                                                                        "<<jA0EAwMC5DTf6th4i24B0qEB4M3huROi+WLv5qqvLbrR0T/i7OPOlPTp8YukMeUru4uqaSAg0CFf\r\n2KQ4BrTxT6JJCqaqZrouNVK25Zek7HVaHZ50sXA+JjRI+cj35kxpOCax0HEDPGDicCg5OamXunLW\r\n7EuMkhF9Jf7+0BvOv91BGC9fsfZOqRQc/MxKyTTNe5LyrcSyOdpmh755TCZaYupwcYFdHlPmVbH4\r\nymwN4YAYZg==\r\n>>"
                                                                                                    ],
                                                                                                    "uploadLabel": "Upload",
                                                                                                    "clearFileLabel": "Clear file",
                                                                                                    "virusScanningText": "",
                                                                                                    "validateExtension": true,
                                                                                                    "#t": "FileUploadWidget"
                                                                                                },
                                                                                                "label": "File Upload 4",
                                                                                                "labelPosition": "ABOVE",
                                                                                                "instructions": "",
                                                                                                "instructionsPosition": "",
                                                                                                "helpTooltip": "",
                                                                                                "requiredStyle": "",
                                                                                                "skinName": "",
                                                                                                "marginBelow": "",
                                                                                                "accessibilityText": "",
                                                                                                "#t": "FieldLayout"
                                                                                            },
                                                                                            {
                                                                                                "_cId": "96d6fb5c165f86ddd65ba9e6059df8ef",
                                                                                                "contents": {
                                                                                                    "_cId": "0399922228d77158a0daf092ca59ffa5",
                                                                                                    "label": "File Upload 5",
                                                                                                    "maxSelections": 5,
                                                                                                    "saveInto": [
                                                                                                        "<<jA0EAwMC5DTf6th4i24B0qEB4M3huROi+WLv5qqvLbrR0T/i7OPOlPTp8YuCMeEru4vVLRj1s2uL\r\ncsMVIbFbSH566Oddu1bKCe5VHtpXnN2+CU6wvGEzLJxq7s+RQOvYiKJ7VvT++5y9PRSJmDNn5HcM\r\nTsWy4VpHLxiC7pQVgNyGJ2TlcGrXjzKI3Ise4W69NTYQZ6qFRjVRovTqO8dSV6SGfLNjQ5c4Nz0T\r\nUabxnegsDA==\r\n>>"
                                                                                                    ],
                                                                                                    "buttonSize": "SMALL",
                                                                                                    "buttonStyle": "SECONDARY",
                                                                                                    "target": {
                                                                                                        "#t": "CollaborationDocumentOrFolder",
                                                                                                        "value": {
                                                                                                            "id": 1205,
                                                                                                            "#t": "CollaborationFolder"
                                                                                                        }
                                                                                                       },
                                                                                                    "uploadLabel": "Upload",
                                                                                                    "virusScanningText": "",
                                                                                                    "addFileLabel": "Add file",
                                                                                                    "buttonIcon": "",
                                                                                                    "validateExtension": true,
                                                                                                    "#t": "MultipleFileUploadWidget"
                                                                                                },
                                                                                                "label": "File Upload 5",
                                                                                                "labelPosition": "ABOVE",
                                                                                                "instructions": "",
                                                                                                "instructionsPosition": "",
                                                                                                "helpTooltip": "",
                                                                                                "requiredStyle": "",
                                                                                                "skinName": "",
                                                                                                "marginBelow": "",
                                                                                                "accessibilityText": "",
                                                                                                "#t": "FieldLayout"
                                                                                            }
                                                                                        ],
                                                                                        "align": "",
                                                                                        "width": ""
                                                                                    }
                                                                                ],
                                                                                "alignVertical": "TOP",
                                                                                "marginBelow": "",
                                                                                "spacing": "",
                                                                                "#t": "MultiColumnLayout"
                                                                            }
                                                                        ],
                                                                        "align": "",
                                                                        "width": ""
                                                                    },
                                                                    {
                                                                        "_cId": "d86d1c17730cd452e926ed30b7ce505c",
                                                                        "contents": [],
                                                                        "align": "",
                                                                        "width": ""
                                                                    },
                                                                    {
                                                                        "_cId": "a64dc0551ab098b856a8a4b0193f5a13",
                                                                        "contents": [],
                                                                        "align": "",
                                                                        "width": ""
                                                                    }
                                                                ],
                                                                "alignVertical": "TOP",
                                                                "marginBelow": "",
                                                                "spacing": "",
                                                                "#t": "MultiColumnLayout"
                                                            }
                                                        ],
                                                        "align": "",
                                                        "width": ""
                                                    }
                                                ],
                                                "alignVertical": "",
                                                "layout": "",
                                                "minHeight": "",
                                                "#t": "ColumnArrayLayout"
                                            }
                                        ],
                                        "divider": "",
                                        "errorLabel": "This section contains errors",
                                        "expandLabel": "Show section contents",
                                        "label": "",
                                        "validations": [],
                                        "labelStyle": "STANDARD",
                                        "skinName": "",
                                        "marginBelow": "",
                                        "accessibilityText": "",
                                        "labelSize": "",
                                        "labelHeadingTag": "",
                                        "labelColor": "",
                                        "labelIcon": {
                                            "#v": "",
                                            "#t": "string"
                                        },
                                        "iconAltText": "",
                                        "dividerColor": "",
                                        "dividerWeight": "",
                                        "#t": "SectionLayout2"
                                    },
                                    {
                                        "isCollapsible": "false",
                                        "isInitiallyCollapsed": "false",
                                        "_cId": "e5aba4fb3310fd9ea3518a3876de07a0",
                                        "collapseLabel": "Hide section contents",
                                        "contents": [
                                            {
                                                "_cId": "a56ac60a5454cb16af5769a2dea8c1dd",
                                                "columns": [
                                                    {
                                                        "_cId": "06e852cfdad12c990d85fd36017d2b88",
                                                        "contents": [],
                                                        "align": "",
                                                        "width": ""
                                                    }
                                                ],
                                                "alignVertical": "",
                                                "layout": "",
                                                "minHeight": "",
                                                "#t": "ColumnArrayLayout"
                                            }
                                        ],
                                        "divider": "",
                                        "errorLabel": "This section contains errors",
                                        "expandLabel": "Show section contents",
                                        "label": "Section",
                                        "validations": [],
                                        "labelStyle": "STANDARD",
                                        "skinName": "",
                                        "marginBelow": "",
                                        "accessibilityText": "",
                                        "labelSize": "",
                                        "labelHeadingTag": "",
                                        "labelColor": "",
                                        "labelIcon": {
                                            "#v": "",
                                            "#t": "string"
                                        },
                                        "iconAltText": "",
                                        "dividerColor": "",
                                        "dividerWeight": "",
                                        "#t": "SectionLayout2"
                                    }
                                ],
                                "align": "",
                                "width": ""
                            }
                        ],
                        "alignVertical": "",
                        "layout": "",
                        "minHeight": "",
                        "isTopLevelComponent": true,
                        "#t": "ColumnArrayLayout"
                    }
                ],
                "layout": "",
                "width": "",
                "#t": "FormLayout"
            }
        ],
        "padding": "STANDARD",
        "topLevelBackgroundColor": "",
        "#t": "ContentLayout"
    },
    "context": {
        "type": "stateful",
        "value": "jA0EAwMC5DTf6th4i24B0poBleQIef5oGVoS2gJt5+E4ivf4gQeicWxshfzJIQMxtI2TMNtm3lDO\r\nfzh068G+hFZ3Q5/SJoTuXVCRyyc9HKc6L5Ow+CuHccZlJtidHM0fpKI4hVEysPWouXtwPvZPNh4l\r\neFrMMhO+zT6gB9TTNWui+oHcDKK/vIqp0qX79H6olokNbD4VzwIZQ1qrB/uJJFfOW3yCK4uw5LIu\r\n",
        "#t": "Map"
    },
    "uuid": "94b11923-7e91-4fd5-8a03-c20c90875980",
    "i18nInfo": {
        "locale": "en-US",
        "timezoneId": "GMT",
        "calendarId": "gregorian",
        "decimalSeparator": ".",
        "groupingSeparator": ",",
        "isRtl": false
    },
    "timers": {
        "#t": "Dictionary"
    },
    "formFactors": [],
    "lastEvaluatedFormFactor": "TABLET_LANDSCAPE",
    "uiExpression": "",
    "#t": "UiConfig",
    "shortcuts": [],
    "#u": "<https://lawe.appianci.net/suite/rest/a/applications/latest/legacy/>; rel=\"x-sasa-app\"; dt=\"UiConfig\",<https://lawe.appianci.net/suite/components/ping.do>; rel=\"x-resume-session\"; dt=\"UiConfig\",<https://lawe.appianci.net/suite/rest/a/applications/latest/app{/appName}{/path*}{?params*}>; rel=\"x-sail-application\"; dt=\"UiConfig\",<https://lawe.appianci.net/suite/rest/a/sites/latest/all>; rel=\"x-sites-all\"; dt=\"UiConfig\",<https://lawe.appianci.net/suite/sites{/urlStub}/tasks/task/{id}>; rel=\"x-site-task\"; dt=\"UiConfig\",<https://lawe.appianci.net/suite/sites{/urlStub}/page/{pageUrlStub}/task/{id}>; rel=\"x-site-task-page\"; dt=\"UiConfig\",<https://lawe.appianci.net/suite/rest/a/rpacomponent/latest/editor>; rel=\"x-rpa-expression-editor\"; dt=\"UiConfig\",<https://lawe.appianci.net/suite/rest/a/applications/latest/legacy/sites{/urlStub}/page{/pageUrlStub}/nav>; rel=\"x-site-page-navattributes\"; dt=\"UiConfig\",<https://lawe.appianci.net/suite/cors>; rel=\"x-cors\"; dt=\"UiConfig\",<https://lawe.appianci.net/suite/rest/a/interfacedesigner/latest/evaluateComponentTemplate{/templateId}>; rel=\"x-ifcdesigner-evaluatecomponenttemplate\"; dt=\"UiConfig\",<https://lawe.appianci.net/suite/rest/a/content/latest/{opaqueContentId}/o>; rel=\"x-attachment-temp\"; type=\"application/vnd.appian.tv+json\"; dt=\"CollaborationDocument\",<https://lawe.appianci.net/suite/rest/a/sites/latest/{siteUrlStub}/pages/{pageUrlStub}/report>; rel=\"x-sites-report\"; dt=\"UiConfig\",<https://lawe.appianci.net/suite/rest/a/applications/latest/legacy/sites{/urlStub}/nav>; rel=\"x-site-navattributes\"; dt=\"UiConfig\",<https://lawe.appianci.net/suite/sites>; rel=\"x-site-main\"; dt=\"UiConfig\",<https://lawe.appianci.net/suite/rest/a/task/latest/{taskId}/attributes>; rel=\"x-task-attributes\"; dt=\"UiConfig\",<https://lawe.appianci.net/suite/internal/webapi/releaselock/{objectUuid}/{uiSourceUuid}>; rel=\"x-data-release-object-lock\"; dt=\"UiConfig\""
}